
{

    "simpleIntData": {

        "data": [ 5, 1, 3, 2, 6 ],
        "size": 5,
        "problemType": "shortest-route"

    },

    "simpleCityData": {

        "data": [{

            "country": "america",
            "coordinate": { "lat": 123, "long": 50 }

        }, {

            "country": "cambodia",
            "coordinate": { "lat": 23, "long": -10 }

        }, {

            "country": "china",
            "coordinate": { "lat": -1, "long": 5 }

        }, {

            "country": "indonesia",
            "coordinate": { "lat": 196, "long": 11 }

        }, {

            "country": "malaysia",
            "coordinate": { "lat": 99, "long": 88 }

        }],
        "size": 5,
        "problemType": "shortest-route"

    }

}